{
	"info": {
		"_postman_id": "46e274bd-25e4-427f-ae8d-ca86e3485cc2",
		"name": "E2EFlow_Environment",
		"description": "Collection of API's using environment variables.",
		"schema": "https://schema.getpostman.com/json/collection/v2.1.0/collection.json"
	},
	"item": [
		{
			"name": "POST_signinRequest",
			"event": [
				{
					"listen": "test",
					"script": {
						"id": "c1864f70-ed13-4d42-be91-ccd979618923",
						"exec": [
							"var jsonData=pm.response.json();",
							"console.log(\"Printing the token value\", jsonData.data.token)",
							"",
							"pm.environment.set(\"globalTokenE\", jsonData.data.token);",
							"console.log(\"Printing the env token value\", pm.environment.get(\"globalTokenE\"));"
						],
						"type": "text/javascript"
					}
				},
				{
					"listen": "prerequest",
					"script": {
						"id": "3ca276e4-309e-4dcb-a30d-c3757891aebd",
						"exec": [
							"var userName=\"\";",
							"var password=\"\";",
							"pm.environment.set(\"userName\",\"jatinvsharma@gmail.com\");",
							"pm.environment.set(\"password\",\"123123123\");",
							"console.log(\"***********\");",
							"console.log(\"URL\",pm.environment.get(\"userName\"));",
							"console.log(\"userName\",pm.environment.get(\"password\"));"
						],
						"type": "text/javascript"
					}
				}
			],
			"request": {
				"method": "POST",
				"header": [
					{
						"key": "Content-Type",
						"value": "application/json",
						"type": "text"
					}
				],
				"body": {
					"mode": "raw",
					"raw": "{\n\t\"email\" : \"{{userName}}\",\n\t\"password\" : \"{{password}}\"\n}"
				},
				"url": {
					"raw": "http://{{URL}}/user/signin",
					"protocol": "http",
					"host": [
						"{{URL}}"
					],
					"path": [
						"user",
						"signin"
					]
				}
			},
			"response": []
		},
		{
			"name": "POST_createProductRequest",
			"event": [
				{
					"listen": "test",
					"script": {
						"id": "8c3716e8-0216-41f9-b768-bca33ca939e7",
						"exec": [
							"var jsonData=pm.response.json();",
							"",
							"pm.environment.set(\"prod_IDE\", jsonData.data.id);",
							"console.log(\"Product ID\", pm.environment.get(\"prod_IDE\"));"
						],
						"type": "text/javascript"
					}
				}
			],
			"request": {
				"method": "POST",
				"header": [
					{
						"key": "Content-Type",
						"value": "application/json",
						"type": "text"
					},
					{
						"key": "Authorization",
						"value": "{{globalTokenE}}",
						"type": "text"
					}
				],
				"body": {
					"mode": "raw",
					"raw": "{\n\t\"prod_name\" : \"Environment Variable\",\n\t\"prod_desc\" : \"Testing environment variable\",\n\t\"prod_price\" : \"2099\"\n}"
				},
				"url": {
					"raw": "http://{{URL}}/api/v1/products",
					"protocol": "http",
					"host": [
						"{{URL}}"
					],
					"path": [
						"api",
						"v1",
						"products"
					]
				}
			},
			"response": []
		},
		{
			"name": "GET_searchProductRequest",
			"request": {
				"method": "GET",
				"header": [
					{
						"key": "Authorization",
						"value": "{{globalTokenE}}",
						"type": "text"
					}
				],
				"url": {
					"raw": "http://{{URL}}/api/v1/products/search/{{prod_IDE}}",
					"protocol": "http",
					"host": [
						"{{URL}}"
					],
					"path": [
						"api",
						"v1",
						"products",
						"search",
						"{{prod_IDE}}"
					]
				}
			},
			"response": []
		},
		{
			"name": "PUT_updateProductRequest",
			"request": {
				"method": "PUT",
				"header": [
					{
						"key": "Content-Type",
						"value": "application/json",
						"type": "text"
					},
					{
						"key": "Authorization",
						"value": "{{globalTokenE}}",
						"type": "text"
					}
				],
				"body": {
					"mode": "raw",
					"raw": "{\n\t\"prod_name\" : \"Test environment Variable\",\n\t\"prod_desc\" : \"updated\",\n\t\"prod_price\" : \"27374\"\n}"
				},
				"url": {
					"raw": "http://{{URL}}/api/v1/products/{{prod_IDE}}",
					"protocol": "http",
					"host": [
						"{{URL}}"
					],
					"path": [
						"api",
						"v1",
						"products",
						"{{prod_IDE}}"
					]
				}
			},
			"response": []
		},
		{
			"name": "DELETE_deleteProductRequest",
			"request": {
				"method": "DELETE",
				"header": [
					{
						"key": "Authorization",
						"value": "{{globalTokenE}}",
						"type": "text"
					}
				],
				"url": {
					"raw": "http://{{URL}}/api/v1/products/{{prod_IDE}}",
					"protocol": "http",
					"host": [
						"{{URL}}"
					],
					"path": [
						"api",
						"v1",
						"products",
						"{{prod_IDE}}"
					]
				}
			},
			"response": []
		}
	],
	"protocolProfileBehavior": {}
}